3000   
3 1 110 1
9 8 179 0
13 2 123 1
8 1 163 0
13 14 121 1
2 8 134 0
2 10 123 0
14 9 110 1
10 7 175 0
8 10 99 1
9 13 105 0
7 5 104 0
6 2 81 1
7 4 87 0
2 7 153 0
11 2 103 1
4 1 70 1
4 3 62 1
13 14 75 1
6 8 82 1
7 3 44 0
7 14 162 0
10 8 75 0
4 6 183 0
6 5 137 1
13 9 93 0
7 13 45 0
11 3 94 1
5 6 128 0
8 4 78 0
3 14 190 1
11 3 98 0
1 5 152 0
8 7 86 1
11 9 160 0
2 8 95 1
3 10 109 1
4 1 125 0
14 13 103 0
10 12 196 0
7 9 150 1
10 11 100 1
2 1 197 0
9 14 69 0
5 14 102 0
3 6 100 0
7 2 138 0
9 12 77 0
8 1 119 0
4 12 196 1
8 4 160 1
14 9 136 1
2 4 178 1
10 11 77 1
12 6 199 0
5 8 49 1
8 12 178 0
5 7 161 1
2 4 124 0
10 5 86 1
13 9 81 1
12 9 192 1
9 4 173 0
7 6 173 1
3 5 61 1
8 3 63 1
13 8 45 1
12 7 101 0
6 8 154 1
5 10 196 0
9 6 89 0
11 14 70 1
3 14 169 0
11 7 170 0
2 9 186 1
7 11 46 0
11 8 69 0
8 14 177 1
10 6 190 1
4 6 153 1
11 14 194 0
14 2 48 1
9 8 185 0
7 8 154 0
12 2 117 1
6 10 67 0
3 5 181 0
6 3 195 1
12 9 100 1
11 7 171 1
7 5 136 0
10 6 158 1
8 5 51 1
2 7 41 0
9 1 44 0
7 2 41 0
5 11 110 0
1 2 135 0
12 13 195 1
4 8 162 1
7 9 187 1
11 9 109 1
6 3 141 1
5 12 200 0
2 4 43 1
2 6 182 1
6 3 110 1
2 7 177 0
10 14 85 0
10 13 138 1
3 11 95 1
3 12 140 1
12 1 193 1
11 12 65 0
9 14 174 1
9 12 45 1
6 1 160 0
3 9 80 0
6 9 66 1
2 5 163 1
11 10 172 0
5 8 92 1
12 8 82 0
4 7 101 0
14 11 197 1
8 1 161 1
13 14 189 0
1 8 73 0
5 2 160 0
8 5 174 1
14 13 97 1
5 9 168 0
2 12 44 1
11 6 159 0
4 2 76 1
5 13 48 1
3 12 66 1
14 5 47 0
6 5 76 0
10 14 110 0
1 9 168 1
14 11 173 1
12 5 75 0
9 12 86 0
13 9 199 0
12 10 80 0
6 9 168 1
12 5 109 1
10 11 162 1
7 14 132 0
4 9 134 1
2 8 123 1
13 7 165 1
9 4 111 0
3 5 117 1
12 14 65 1
10 6 196 0
10 13 104 0
14 8 190 0
7 9 182 0
6 14 104 0
13 14 145 0
1 9 131 1
11 10 124 0
14 8 44 0
8 1 183 1
4 2 90 1
10 1 84 0
13 7 161 1
11 2 197 1
1 7 92 0
4 9 137 0
7 1 122 1
2 7 112 0
12 10 180 0
4 7 194 0
7 5 49 1
8 3 108 0
11 6 191 1
12 9 126 1
11 2 181 1
5 3 189 0
9 10 179 1
12 8 151 1
8 10 193 1
2 1 141 0
10 5 192 0
14 2 73 1
13 11 87 1
12 11 83 1
5 12 172 0
9 5 152 0
7 4 148 0
13 11 81 0
2 3 63 0
2 12 156 0
7 10 183 1
4 14 45 1
14 6 89 1
13 2 93 1
7 9 133 0
1 8 45 0
5 12 79 0
14 1 48 1
10 9 58 0
9 1 51 1
12 2 78 1
2 13 152 1
10 8 92 0
2 3 43 0
14 2 115 0
5 11 129 0
4 11 184 0
6 14 81 1
14 4 80 1
1 5 135 1
9 12 120 1
12 4 136 0
8 12 188 1
4 10 187 1
14 3 57 0
6 5 151 1
6 5 89 1
9 4 64 1
4 8 180 1
13 2 174 0
13 2 121 0
3 9 137 1
8 14 118 0
6 1 87 1
5 2 122 0
11 8 169 0
3 2 172 0
1 13 122 0
9 11 177 1
2 11 93 1
6 12 68 0
13 1 150 1
7 6 197 1
7 3 92 0
13 4 90 1
10 3 180 1
7 1 161 0
4 10 129 1
8 13 107 0
7 4 189 1
4 7 153 0
3 12 134 0
4 8 109 0
1 12 149 0
13 3 137 1
3 1 164 0
6 1 134 0
11 8 80 1
11 13 51 0
11 10 165 1
6 9 177 1
8 5 153 0
8 13 175 1
14 12 40 0
2 4 43 1
5 8 189 1
5 13 94 1
8 12 101 0
9 7 116 0
2 4 111 1
13 7 110 1
7 13 115 0
7 4 53 1
13 4 178 1
13 14 62 0
14 10 184 0
1 9 77 1
11 9 134 0
4 7 41 1
14 2 45 0
4 1 171 0
13 2 96 1
9 10 144 1
2 11 78 0
13 2 196 1
12 1 127 0
5 12 136 1
12 1 85 0
7 14 160 1
5 4 182 1
12 2 178 1
13 8 59 0
10 12 45 0
14 5 142 0
4 12 156 0
9 6 54 1
7 4 94 0
3 6 152 1
10 7 109 1
3 9 83 0
14 11 149 0
11 9 192 1
4 14 164 1
10 6 101 1
6 1 116 0
14 8 176 1
7 12 199 1
13 11 131 1
12 14 144 1
7 13 42 1
7 8 49 0
13 2 110 0
14 9 80 1
8 12 174 0
3 8 180 0
12 13 75 0
7 12 115 0
8 2 61 0
9 4 179 0
7 11 94 0
8 13 165 1
4 6 179 1
4 9 117 1
14 12 154 0
13 1 94 0
12 8 98 1
8 5 51 0
1 6 59 0
13 5 59 0
13 5 46 0
2 11 113 1
10 8 141 0
10 13 115 1
1 10 89 0
10 8 155 1
7 14 102 0
4 10 175 0
4 11 134 0
8 7 144 1
5 2 172 0
11 3 57 1
13 14 179 1
8 14 122 1
1 14 188 1
7 5 156 1
6 13 127 0
7 5 193 1
8 14 113 1
3 12 156 0
12 8 128 1
9 2 48 0
9 4 105 0
8 2 67 0
6 7 65 1
1 2 193 0
1 7 178 1
12 9 40 0
13 10 100 0
4 8 198 0
4 10 97 1
2 4 170 0
8 12 158 1
7 5 117 0
3 13 143 1
8 14 166 1
7 4 131 0
5 13 182 0
13 3 123 1
13 10 102 1
12 9 53 1
1 8 59 1
12 4 182 1
6 4 80 0
1 10 139 1
14 6 81 0
12 7 54 1
3 8 97 1
11 8 167 0
10 1 168 0
14 2 186 1
9 5 52 1
3 6 140 1
8 14 76 0
10 1 160 1
12 6 91 0
11 6 55 0
9 2 59 1
7 1 48 0
13 7 130 1
1 13 86 1
9 7 99 0
14 9 85 0
7 1 181 0
3 8 48 0
7 8 131 1
6 2 113 0
11 1 193 0
14 8 78 1
11 14 97 0
2 9 109 1
4 2 112 0
2 7 145 0
5 6 182 1
4 11 86 0
1 6 110 0
5 4 190 1
6 7 130 1
4 14 69 0
1 5 160 1
3 14 127 0
9 13 184 1
7 5 48 1
2 5 103 0
1 12 86 1
7 11 72 0
14 9 89 1
13 3 40 0
13 2 46 0
9 8 41 1
14 13 58 1
4 8 138 1
12 11 96 1
10 14 66 0
13 7 177 1
3 4 48 0
11 8 44 0
8 5 67 1
9 11 64 1
3 12 94 1
1 12 120 0
13 11 147 0
8 14 135 0
14 13 74 1
7 1 116 0
4 6 109 0
12 7 101 1
11 14 122 0
7 12 102 1
14 8 109 1
5 2 100 1
5 12 125 0
11 2 140 1
5 9 179 1
10 13 72 1
7 13 120 0
8 9 106 1
10 8 101 1
6 4 72 0
6 1 100 0
3 13 91 0
3 11 51 1
3 5 150 0
8 11 189 0
11 6 78 0
4 12 146 0
12 7 89 1
14 11 173 1
9 11 119 1
1 14 55 0
6 2 156 1
11 8 170 0
14 13 121 1
7 12 91 0
4 2 160 0
13 5 169 1
7 12 193 0
10 4 104 1
12 14 144 0
14 10 131 1
9 6 105 1
7 8 186 0
5 9 118 1
9 13 49 0
2 8 126 1
4 9 113 0
10 5 95 1
14 5 65 1
11 10 152 0
6 13 91 0
5 2 102 0
14 13 53 0
4 5 198 0
11 12 66 1
2 11 157 0
2 7 121 0
13 10 169 0
14 1 127 0
7 10 73 1
5 13 61 0
14 3 64 0
2 7 147 1
12 10 116 0
14 8 89 0
4 7 139 1
2 4 158 1
12 14 104 1
8 11 91 1
4 14 117 1
4 2 49 1
11 3 184 0
10 14 45 0
7 9 53 0
1 8 154 1
9 3 143 1
2 6 82 0
9 8 106 1
13 4 139 1
14 13 101 1
12 2 65 0
12 9 134 0
9 1 170 1
7 4 81 0
4 1 67 0
3 9 172 1
12 10 178 0
3 14 55 1
4 5 71 0
14 6 134 0
11 6 178 0
11 4 168 1
8 9 153 0
11 13 48 0
13 6 106 0
11 14 77 0
6 8 131 1
7 6 200 1
10 14 148 1
8 1 182 0
5 14 114 0
2 9 64 1
9 5 98 1
13 5 194 0
3 11 139 0
9 10 159 0
4 1 116 1
4 8 79 0
10 13 178 0
6 13 81 1
9 3 173 1
8 4 46 1
6 9 198 1
11 13 116 0
12 7 58 1
9 2 186 1
1 14 150 1
8 11 47 1
10 7 133 0
3 6 188 0
6 5 53 1
12 13 156 1
5 10 181 0
2 7 60 1
13 3 59 0
5 6 167 0
10 6 143 0
9 10 136 0
6 3 168 0
5 11 78 0
12 6 101 0
7 8 151 0
8 9 131 1
13 3 68 1
11 3 198 1
3 13 186 1
8 3 122 1
3 7 126 0
9 1 91 1
5 9 98 0
13 9 146 1
11 12 123 0
6 12 67 1
14 12 75 0
1 6 105 1
2 6 138 0
4 5 82 0
3 1 112 0
13 8 187 1
9 2 189 1
13 6 137 1
13 9 56 0
6 2 74 0
4 10 161 0
8 9 198 1
9 13 131 0
14 7 136 0
10 3 53 0
13 8 114 1
11 10 145 1
7 8 100 1
5 11 101 0
7 11 190 0
13 4 180 1
7 1 170 1
3 10 74 1
11 8 186 1
7 9 130 1
2 5 40 1
11 2 96 0
7 12 141 1
9 11 178 0
3 9 66 0
2 5 133 0
12 8 76 0
3 10 142 1
3 14 42 0
1 14 87 1
13 3 146 1
14 2 68 0
1 7 176 0
1 8 178 1
12 13 160 1
8 3 173 0
3 13 102 0
4 13 159 1
10 14 68 0
9 12 177 0
2 6 173 1
12 10 44 0
13 7 174 1
11 13 174 0
3 8 103 0
14 9 192 0
7 11 159 0
1 2 168 1
1 8 155 1
4 12 62 0
13 1 100 1
8 2 46 1
14 6 143 1
3 1 115 1
14 6 193 0
9 8 153 0
11 13 41 1
11 14 76 0
9 2 83 1
12 2 115 0
13 5 178 0
13 3 162 1
9 8 100 1
12 3 118 1
3 7 174 1
11 10 45 1
14 2 159 0
9 7 131 0
2 5 130 1
14 2 146 0
7 5 116 0
14 2 168 1
13 2 87 0
8 11 85 0
5 7 158 1
6 13 195 0
2 9 101 0
5 10 126 1
10 1 69 1
13 12 59 0
2 9 192 0
14 5 73 0
14 9 50 1
3 4 48 1
12 6 173 0
9 6 97 0
5 8 114 0
8 12 55 0
9 3 138 1
9 12 120 1
3 1 161 0
5 2 100 1
12 10 194 1
2 10 117 1
13 7 164 1
4 10 61 1
6 11 145 1
5 13 113 1
7 14 75 1
1 5 163 1
9 7 41 1
9 10 95 0
10 13 48 1
10 11 199 0
6 10 100 0
5 2 148 1
13 11 107 0
3 4 180 1
5 4 110 1
13 8 141 1
1 9 47 1
7 1 50 1
8 6 98 1
3 5 94 1
7 2 182 0
12 10 198 1
4 9 157 0
12 3 59 1
3 8 122 1
5 1 171 1
7 4 169 0
12 7 196 0
2 4 171 0
7 14 195 1
9 13 119 1
5 8 50 1
3 14 170 1
14 3 194 0
2 5 184 0
1 9 169 0
1 4 56 1
6 13 107 0
1 4 78 0
10 1 138 0
4 10 91 1
8 3 182 0
12 11 169 0
10 5 125 0
1 8 109 1
9 14 134 0
7 8 68 1
14 8 117 1
2 13 40 1
10 8 117 1
9 13 149 1
2 8 57 0
10 3 165 1
13 5 49 0
2 14 42 0
1 4 41 0
8 4 71 1
6 1 137 1
5 11 175 1
8 7 94 0
14 9 69 1
9 5 83 0
3 10 48 0
5 2 184 0
6 3 109 0
11 6 193 0
14 5 86 0
3 2 123 0
6 4 52 1
9 6 147 0
5 10 72 0
10 3 111 0
14 8 140 0
13 3 105 1
10 13 118 0
5 8 102 0
10 12 57 1
11 4 45 1
14 4 131 0
1 8 173 1
1 4 146 1
10 1 155 0
1 6 155 1
14 13 179 1
8 6 60 0
13 4 175 0
6 4 64 1
5 14 120 1
1 9 132 0
10 13 185 1
3 12 49 0
5 11 56 0
11 8 80 1
9 1 49 1
7 10 177 1
1 5 143 0
5 7 171 1
8 5 106 1
5 7 99 0
8 10 119 0
7 1 106 1
11 12 163 0
2 6 119 1
1 14 156 0
3 10 101 0
6 3 168 0
1 10 149 0
12 5 44 0
12 10 166 1
12 1 105 1
7 13 85 1
1 3 174 0
12 5 148 0
11 7 191 0
6 2 195 0
2 11 121 0
11 12 80 1
7 3 136 1
2 13 128 0
3 4 112 0
5 11 181 0
6 9 143 0
7 5 133 1
6 1 189 0
6 4 166 1
8 10 54 0
14 2 176 0
1 8 144 0
10 11 132 0
4 12 108 0
12 4 104 0
7 2 159 0
7 1 197 0
13 6 182 1
13 6 140 1
13 3 40 1
4 9 89 0
13 14 102 1
3 9 152 0
8 13 82 0
12 7 64 0
10 8 86 0
11 4 106 1
11 2 185 0
7 11 149 1
10 2 192 1
8 10 197 1
11 12 165 0
7 1 92 1
7 9 167 0
8 13 184 0
13 1 170 0
4 12 96 0
1 14 149 0
14 10 187 1
13 5 51 1
2 11 112 0
3 8 142 1
7 13 58 1
10 5 193 1
3 8 181 1
11 13 175 1
3 1 41 1
9 13 158 1
7 4 157 0
11 12 159 1
9 7 54 0
10 4 196 0
5 6 78 0
10 3 124 1
7 13 74 1
13 10 122 0
2 14 97 1
6 1 127 0
4 1 175 1
5 11 196 0
11 10 147 0
8 6 147 1
2 7 128 0
6 11 124 0
2 4 112 1
10 14 190 1
14 3 196 0
4 1 88 0
2 5 61 0
1 10 53 0
3 10 120 0
12 14 40 1
1 2 57 0
4 5 80 1
6 9 166 0
12 11 173 1
1 9 152 0
2 9 170 1
2 11 185 0
1 4 157 0
6 8 193 1
2 10 57 1
4 9 171 0
7 11 187 1
3 8 166 1
11 7 133 0
2 5 187 0
4 11 164 1
13 12 92 1
5 14 85 1
11 7 145 1
5 2 167 1
9 3 52 1
12 5 101 0
12 11 100 0
10 1 85 0
9 5 199 0
11 3 109 0
6 2 129 0
2 10 118 1
2 3 61 1
14 8 79 0
10 8 138 1
6 11 65 1
5 12 100 0
9 5 189 0
12 4 85 0
10 7 195 0
14 7 121 0
6 7 61 0
8 10 168 0
13 5 156 1
4 3 146 1
12 4 68 1
7 11 61 0
9 1 61 1
8 12 167 0
4 2 182 1
14 9 54 1
3 1 156 1
9 12 131 1
12 5 91 0
8 4 157 0
13 4 53 1
11 12 159 0
14 7 166 1
14 1 197 0
5 8 88 1
10 12 96 0
5 13 161 0
9 11 176 1
9 1 75 1
6 10 166 0
8 4 41 1
1 6 80 1
10 13 41 0
12 13 196 1
8 12 142 1
14 1 110 0
2 12 124 1
14 6 99 1
7 4 113 0
4 2 107 0
5 10 111 0
12 11 167 0
8 9 55 1
9 5 163 0
1 5 129 0
10 11 130 1
13 6 113 0
11 8 97 0
2 1 136 1
9 13 142 0
4 1 157 0
4 8 127 1
13 12 196 0
14 1 78 0
10 13 132 0
8 3 92 1
8 2 101 0
9 1 132 1
2 11 196 0
11 5 113 0
6 5 171 0
12 4 50 1
9 6 185 0
3 8 190 0
6 4 176 1
6 1 69 0
3 5 114 0
5 7 77 1
10 3 169 1
5 11 160 0
2 3 141 1
8 3 155 1
4 13 74 0
13 8 116 1
1 8 139 1
4 1 62 0
14 6 199 1
2 6 130 1
8 5 65 0
2 10 114 1
10 3 169 0
8 3 166 0
8 6 156 0
9 13 112 0
5 9 84 1
12 14 111 1
9 12 45 0
14 7 170 1
10 6 105 1
10 7 193 0
5 13 127 0
2 7 52 1
10 13 146 0
12 7 113 0
12 3 44 1
3 9 44 0
10 2 78 0
3 5 168 1
11 8 129 0
11 13 62 1
3 1 60 0
2 14 83 0
9 13 99 0
3 8 81 0
1 9 194 0
1 9 97 0
8 6 123 1
3 7 49 0
11 2 147 1
9 3 110 1
4 8 74 0
11 6 48 1
7 12 88 1
8 1 81 0
7 3 78 0
9 3 155 0
7 10 104 1
2 9 111 1
2 6 127 0
13 9 185 1
1 5 58 1
1 10 116 0
8 10 170 0
5 10 178 0
13 3 176 0
11 13 50 1
5 9 181 0
11 3 123 0
10 5 82 1
9 2 141 0
11 13 93 1
11 5 80 0
1 8 105 0
7 6 49 1
8 6 185 1
7 8 61 0
13 3 65 0
10 1 86 0
11 4 149 1
9 12 184 1
7 10 153 1
6 4 52 1
3 6 188 1
13 2 199 1
5 11 136 1
5 2 87 0
5 2 173 1
4 10 46 1
10 1 40 0
13 4 125 0
8 5 106 0
14 1 103 1
9 5 185 0
5 13 145 0
7 2 193 1
7 12 92 1
12 2 193 0
5 1 111 1
13 8 169 0
11 1 116 1
5 14 73 0
4 8 200 1
14 2 69 1
2 10 44 0
8 6 153 1
6 10 136 0
9 6 176 1
12 14 85 0
10 6 120 1
14 11 101 0
9 8 97 1
9 5 52 1
4 5 176 1
3 8 137 1
9 12 165 0
5 3 112 0
4 14 104 0
9 1 73 1
9 3 175 1
8 3 53 1
1 7 129 0
1 10 67 1
9 11 49 0
6 5 129 1
6 5 141 0
14 5 71 1
5 8 188 1
4 6 133 0
4 14 109 0
8 5 109 0
13 2 59 1
10 1 121 1
6 5 77 1
6 9 83 1
12 2 157 0
7 14 55 1
4 1 133 0
8 12 72 1
3 5 42 0
14 11 161 1
4 5 195 0
8 3 109 1
6 12 170 1
8 12 154 1
3 4 79 1
4 14 95 1
6 5 161 0
2 9 97 0
1 13 113 1
13 4 138 0
3 14 147 1
13 8 43 0
12 11 132 0
11 7 146 0
12 1 165 0
2 4 61 0
8 1 199 0
5 1 124 0
6 14 188 1
9 6 155 1
4 7 177 0
3 6 178 0
9 2 52 1
6 7 114 1
4 13 186 1
6 9 147 1
2 8 108 1
8 4 56 1
1 5 165 0
9 14 144 0
4 11 183 1
9 10 187 0
5 9 87 0
1 14 73 0
5 11 44 0
13 2 93 1
4 8 165 1
14 3 107 0
9 1 50 0
2 3 99 0
10 9 68 1
6 7 72 1
9 1 184 1
1 2 200 1
9 1 91 1
2 8 92 0
9 2 49 0
8 4 186 1
7 14 133 0
12 7 80 0
2 8 196 1
9 7 133 0
6 4 108 0
7 9 126 1
13 5 104 0
1 4 59 1
13 1 175 1
2 7 136 1
14 10 114 1
4 12 92 0
4 14 122 0
14 11 90 0
1 12 106 1
8 13 105 1
2 5 63 0
6 4 74 1
12 3 184 1
8 14 130 1
13 5 92 0
7 1 165 0
4 5 99 1
1 11 180 1
10 4 140 0
14 9 101 0
13 9 176 0
1 13 106 1
3 12 186 0
11 6 153 1
9 5 153 0
1 8 127 1
10 13 192 0
9 13 58 1
1 8 158 0
6 2 88 0
8 11 142 0
1 3 107 0
13 1 62 0
11 8 161 1
10 9 41 0
14 2 98 1
11 3 198 0
1 12 178 0
11 8 134 1
8 1 49 0
9 13 148 0
10 12 146 1
5 14 79 0
11 4 176 0
13 5 190 0
9 2 99 0
4 1 183 1
9 5 200 0
14 10 156 0
8 4 155 1
2 4 72 1
11 12 43 0
7 6 94 0
11 6 148 1
1 5 195 0
6 9 130 0
14 2 182 1
3 4 153 0
9 14 133 0
3 2 63 0
9 6 66 1
12 6 161 0
9 13 73 1
2 1 52 1
6 9 177 1
14 11 190 0
4 11 151 0
11 5 122 1
9 14 67 0
11 5 141 1
2 8 196 1
9 2 72 1
1 4 77 1
2 14 122 1
4 6 104 0
7 9 40 0
11 10 125 0
14 5 168 0
1 2 92 0
1 3 111 0
10 11 114 1
14 7 185 1
9 8 176 0
10 9 145 1
5 3 56 0
5 8 199 1
10 13 179 0
14 7 180 0
5 9 179 1
2 6 64 0
11 5 171 0
10 13 161 0
6 4 94 1
7 1 142 0
3 10 129 0
5 6 63 0
7 6 172 1
12 7 42 1
3 6 155 1
4 10 86 0
3 6 184 0
6 10 80 0
9 3 57 1
4 1 65 1
10 11 169 1
13 9 42 0
8 9 111 0
3 14 174 1
9 5 54 1
12 11 192 0
6 3 93 1
8 3 58 1
12 3 120 0
13 11 130 1
7 13 185 1
8 13 133 0
10 7 75 0
3 13 60 1
7 9 158 1
1 12 99 1
13 4 200 1
12 10 127 0
12 9 165 1
12 7 180 1
3 7 45 1
4 10 167 1
10 4 116 0
4 3 83 1
5 9 69 1
5 4 186 0
1 9 47 0
8 12 140 1
13 11 130 0
6 5 139 0
6 3 170 0
10 13 172 1
1 2 122 1
12 14 196 0
5 11 74 0
14 6 95 0
11 12 135 0
8 1 161 0
9 4 154 0
5 1 175 0
8 10 167 0
13 9 86 0
13 6 64 0
10 14 71 0
7 9 47 1
9 7 49 0
1 12 135 1
10 9 193 0
7 12 120 0
3 10 187 0
6 1 76 1
13 5 44 1
7 13 92 0
1 8 93 1
14 11 93 1
6 9 194 1
3 12 156 1
3 5 108 1
4 12 167 0
9 2 147 1
10 5 149 0
6 3 156 1
13 8 71 1
3 6 177 1
13 6 152 1
2 6 188 1
6 4 76 0
13 8 169 1
7 14 61 1
10 14 57 1
3 10 140 0
12 14 110 1
1 4 133 1
4 10 49 0
2 5 144 1
8 6 163 0
10 13 93 1
12 2 65 1
10 1 60 1
12 11 192 0
4 8 166 1
9 8 157 1
7 4 94 0
11 6 121 1
4 5 112 1
4 13 134 0
9 4 56 1
7 10 162 0
8 3 191 1
4 14 150 1
10 11 133 1
13 6 79 1
13 10 177 0
9 1 188 0
8 11 94 1
5 10 109 1
4 14 152 0
5 1 131 1
4 3 112 1
9 5 87 1
3 11 54 1
7 2 132 0
5 11 154 1
6 4 119 1
8 1 180 1
5 14 193 0
3 1 79 0
4 11 76 1
4 5 185 1
2 6 175 0
14 6 198 1
11 9 140 0
4 3 142 0
10 7 192 0
4 10 91 1
14 4 190 0
2 4 190 1
13 11 42 0
10 13 133 0
2 3 45 1
5 7 69 1
14 9 40 1
10 2 200 0
12 7 134 1
8 3 134 1
7 8 114 1
14 11 72 0
3 9 141 1
9 13 80 1
2 8 172 0
12 7 128 1
10 14 55 1
1 2 141 0
5 12 88 1
7 5 174 0
1 4 67 0
3 7 157 0
11 2 191 1
9 14 93 1
1 7 63 1
3 9 145 0
1 2 42 0
11 1 58 1
13 14 200 0
5 3 159 0
3 7 47 0
11 13 166 1
5 1 171 1
1 4 191 1
6 12 148 1
7 14 172 0
2 7 133 0
7 6 62 0
6 12 46 0
2 5 192 0
3 8 87 1
2 12 68 1
4 3 74 0
6 9 47 1
13 7 40 0
12 13 88 1
12 7 121 1
3 13 199 1
12 14 183 0
10 3 78 1
1 4 197 0
9 13 103 0
3 1 140 0
5 9 90 0
6 10 141 1
3 9 53 1
12 1 93 0
13 8 200 1
4 7 65 1
4 11 138 0
11 9 112 1
11 2 57 0
5 9 88 0
6 11 200 1
7 2 156 1
2 8 128 0
5 9 71 0
10 7 65 1
9 5 173 1
4 14 145 0
12 1 106 0
2 9 79 1
12 7 103 1
1 6 118 0
1 2 145 0
2 1 66 0
13 11 61 0
10 7 119 1
5 13 112 1
3 2 73 1
10 14 46 0
7 5 54 0
6 10 131 1
10 5 82 0
9 12 130 0
12 4 172 1
9 6 50 0
10 4 54 0
13 4 117 1
3 7 139 1
10 4 108 1
14 7 89 0
5 4 62 1
7 2 189 0
3 11 148 1
2 1 100 0
7 2 169 1
7 8 124 1
10 3 169 0
6 4 83 0
13 8 114 0
5 14 116 1
10 12 83 0
11 3 174 0
14 11 61 0
14 8 104 1
10 4 44 1
14 11 199 0
2 7 159 0
13 11 139 0
5 12 102 0
13 7 67 1
10 6 100 0
8 5 117 1
3 5 159 0
10 12 177 0
10 11 153 0
1 3 93 1
4 2 197 1
14 9 79 0
10 4 58 0
4 5 196 0
14 6 41 0
3 14 112 0
4 13 56 0
6 13 125 0
5 6 136 0
2 1 104 0
13 5 127 1
5 2 111 0
10 2 72 1
9 6 137 1
10 6 132 0
11 5 52 1
5 1 68 1
10 12 83 1
3 14 106 1
12 6 120 0
12 6 55 0
12 14 131 1
9 14 162 0
8 9 179 1
14 2 87 0
2 4 69 0
5 12 127 0
10 1 132 0
6 8 189 1
12 3 181 0
12 3 197 1
11 12 120 0
2 13 43 1
12 2 118 1
11 4 172 1
13 3 48 0
1 12 186 1
4 9 191 0
9 12 174 0
1 4 109 1
13 1 94 0
4 11 86 0
2 4 171 1
10 14 108 0
14 6 146 0
13 5 87 0
7 3 44 1
5 14 166 1
12 6 153 1
12 7 178 0
14 4 45 0
7 13 85 0
3 11 79 1
12 10 194 0
8 13 116 1
1 2 159 1
6 9 43 0
1 10 123 1
6 7 146 0
2 7 157 0
13 4 75 0
12 10 181 0
10 7 130 0
14 5 65 0
8 1 179 1
7 3 156 1
7 3 167 1
2 14 40 1
1 4 153 0
4 5 55 1
11 5 124 1
10 7 144 0
4 12 120 1
10 8 81 1
9 10 134 0
7 5 109 0
14 4 167 0
1 7 130 0
3 10 97 1
10 9 121 1
10 5 173 0
9 1 174 1
12 5 109 1
2 9 189 1
1 10 81 0
6 8 75 1
6 2 44 1
14 5 159 0
2 8 102 1
5 9 131 1
8 4 64 0
1 12 105 1
14 6 48 1
9 8 131 0
11 5 182 1
12 1 104 1
6 5 142 1
12 8 159 0
7 12 119 0
12 2 78 0
8 1 115 0
10 13 119 0
3 14 161 0
10 3 86 1
1 4 67 0
13 5 56 0
7 10 149 0
10 9 124 1
8 11 107 1
10 14 89 0
6 1 142 0
6 7 90 0
2 14 119 0
5 1 139 0
10 12 56 1
9 8 113 0
3 8 140 0
9 12 103 1
2 9 180 0
2 3 147 0
9 7 90 1
8 10 60 1
10 14 173 0
14 3 75 0
5 4 134 1
3 6 64 1
3 10 160 0
2 1 170 0
10 7 169 0
1 4 154 1
13 11 56 0
11 1 149 0
1 2 52 1
4 2 125 1
9 10 77 1
1 10 121 0
13 14 162 1
10 11 134 1
13 9 43 1
1 14 117 0
7 6 183 1
9 5 86 1
10 11 172 0
4 12 141 1
6 7 120 1
5 10 190 1
9 11 99 0
8 14 112 0
7 8 46 1
10 3 42 0
8 10 142 0
13 10 59 0
7 9 144 1
1 4 67 0
8 10 147 0
4 13 76 0
10 12 157 0
9 13 54 0
14 3 124 0
11 5 70 1
10 12 149 1
8 3 119 0
12 3 124 1
5 8 155 1
10 1 122 1
1 13 174 1
12 6 64 1
10 14 55 0
1 11 114 1
12 3 58 1
5 9 149 1
14 11 84 0
6 4 141 0
1 3 72 1
7 12 102 0
11 9 65 1
7 6 55 1
5 6 63 1
4 12 95 1
4 11 138 1
10 1 150 0
7 9 134 0
11 5 188 0
8 5 78 1
2 5 170 1
13 14 92 0
8 5 178 0
12 9 155 1
1 3 121 1
8 4 152 1
1 5 107 1
2 13 196 1
5 8 167 0
13 12 41 0
1 10 126 1
8 1 77 0
14 1 49 1
5 2 142 1
12 4 109 1
9 11 191 0
4 6 199 1
13 4 75 0
14 9 121 1
11 1 48 1
12 9 198 1
9 5 53 1
9 5 67 0
1 10 79 0
5 6 48 1
3 4 50 1
1 2 51 0
5 9 100 0
11 13 136 1
6 4 61 1
14 1 181 1
12 7 95 1
6 8 183 1
4 7 173 1
11 13 120 1
12 14 167 0
8 4 122 0
1 9 139 0
9 8 177 0
4 2 49 0
10 4 107 0
2 1 59 0
4 1 157 0
8 11 172 0
2 3 155 0
1 6 119 0
3 7 51 1
6 4 52 1
13 3 194 0
14 5 50 1
8 13 72 0
5 14 174 1
4 1 73 1
2 12 186 0
7 1 90 0
4 10 186 0
4 13 50 0
14 8 194 1
8 13 74 1
2 7 180 0
7 9 52 1
1 12 42 1
2 9 140 1
5 13 165 0
4 13 57 1
2 11 146 1
14 3 43 1
7 2 54 0
3 14 86 1
12 4 157 1
5 10 103 1
14 8 121 0
3 13 83 1
8 14 83 1
5 8 100 0
10 4 194 1
6 8 138 1
13 3 54 0
9 6 189 1
14 10 139 1
1 9 44 0
3 4 194 0
12 1 89 0
4 2 137 0
13 1 162 1
7 2 54 0
11 6 173 1
11 3 174 0
14 2 190 1
1 14 144 1
9 5 75 1
3 6 181 1
9 6 174 1
2 10 100 1
9 13 137 0
9 14 123 0
14 13 159 1
11 7 104 1
13 14 192 1
1 3 124 1
1 2 137 0
10 9 51 1
5 2 159 0
1 10 181 0
12 4 43 1
14 11 105 0
7 14 133 0
11 2 151 1
2 9 120 1
8 5 177 0
3 13 75 1
5 12 131 0
2 3 141 1
11 9 168 1
11 13 109 0
5 7 98 0
14 5 79 0
13 5 52 1
2 7 110 0
2 9 61 1
7 4 192 0
7 5 115 0
3 1 154 0
6 13 116 0
7 13 153 1
1 8 106 1
8 4 128 0
1 2 164 0
2 5 185 1
1 5 71 1
1 12 163 1
12 11 59 1
1 3 64 1
6 9 84 1
9 2 52 1
3 8 175 1
3 1 192 0
9 3 78 0
3 12 55 1
10 4 179 0
11 13 139 1
7 11 41 1
2 3 191 0
2 10 46 1
3 10 177 1
7 11 84 1
14 2 93 1
4 11 98 0
3 13 192 1
1 6 59 0
4 13 184 1
13 1 194 1
4 7 196 1
4 2 64 0
7 6 108 1
7 1 45 1
14 8 186 1
5 13 165 1
13 6 115 1
7 10 55 1
2 7 81 0
4 14 50 1
9 5 62 0
14 5 78 0
1 2 89 1
10 12 130 0
8 13 111 1
9 5 56 1
4 10 165 0
9 4 116 1
12 11 63 0
8 11 174 1
13 3 72 1
7 3 156 1
12 8 73 1
12 4 155 0
7 14 141 1
6 5 100 1
3 7 59 1
14 9 110 0
8 10 165 0
8 7 57 0
7 6 44 0
14 4 159 1
11 8 67 0
3 1 136 0
7 9 156 1
9 6 59 1
8 2 53 1
10 7 120 0
2 5 94 1
11 10 182 0
6 13 79 0
10 4 65 1
5 1 76 0
14 4 139 1
7 5 136 1
2 8 63 1
8 12 155 0
13 14 114 0
13 7 181 1
2 9 115 0
11 7 153 1
12 1 195 0
9 1 197 0
6 8 128 1
12 7 181 0
1 5 91 1
7 10 99 1
4 11 186 1
13 1 129 1
3 6 77 0
5 10 134 1
1 3 119 0
2 5 54 1
4 9 75 1
3 2 187 0
6 2 128 1
4 2 92 1
14 13 167 1
6 14 78 1
12 1 194 0
14 11 137 1
8 7 80 1
7 10 199 1
4 5 54 0
6 13 108 1
4 12 178 0
9 2 80 0
8 13 146 1
9 2 46 1
5 1 188 1
1 9 110 0
1 4 60 1
7 2 110 0
8 11 197 0
8 9 163 1
11 7 144 0
13 4 97 1
14 3 55 1
2 3 137 0
13 9 178 1
11 8 40 0
7 8 102 1
9 11 68 1
6 14 190 1
7 11 186 0
2 8 94 1
3 8 53 0
9 2 137 1
7 5 162 0
10 7 110 1
7 13 155 0
2 9 114 0
1 9 141 0
3 11 167 1
8 4 71 1
1 3 196 0
9 14 56 1
13 3 66 0
3 2 98 1
2 10 128 1
3 13 147 1
6 7 57 1
7 10 157 0
9 6 168 0
14 11 41 1
13 10 182 1
6 2 200 0
1 10 145 1
7 6 112 1
6 2 46 1
9 11 81 0
10 8 183 1
7 11 147 0
2 13 131 1
14 12 50 1
6 9 187 1
10 14 110 1
13 2 72 0
11 4 99 0
7 3 160 1
13 2 165 1
7 9 97 1
9 12 113 1
7 9 130 1
8 11 111 0
2 14 157 0
2 12 156 0
4 5 133 1
13 3 121 1
4 11 167 1
5 7 84 0
6 4 79 1
14 3 186 1
3 10 144 0
8 1 43 1
2 10 164 0
10 14 87 1
8 10 192 0
14 3 191 1
3 1 83 1
11 9 90 0
12 9 83 1
13 3 172 0
2 1 41 0
13 1 147 1
4 2 97 0
9 7 186 0
8 3 121 0
9 3 94 0
9 10 66 0
11 6 103 0
4 14 61 1
1 5 91 0
3 7 111 1
1 12 127 1
8 7 119 1
8 11 191 0
7 2 190 0
11 12 169 0
5 11 116 1
7 6 68 0
13 7 137 1
2 9 71 0
1 14 123 0
10 9 90 1
6 4 78 1
1 5 128 1
1 9 116 0
12 3 194 0
13 10 64 0
1 3 124 0
2 8 197 1
3 2 155 0
8 9 182 0
5 1 63 1
3 11 184 0
12 4 108 1
10 14 75 0
8 11 181 1
14 1 130 0
3 6 92 1
12 6 140 1
12 14 69 0
11 12 149 1
1 2 85 0
13 7 199 1
13 8 197 1
3 5 49 1
7 5 187 1
10 12 81 0
6 1 180 0
2 8 161 0
1 7 60 1
14 10 153 0
1 7 127 0
12 9 192 0
13 2 170 1
4 13 148 0
10 12 125 1
8 13 59 0
3 11 113 0
6 11 193 1
9 14 142 1
13 4 56 0
6 11 190 1
5 8 128 1
9 3 107 0
2 4 200 0
12 2 128 1
10 12 186 0
5 11 118 1
13 14 43 0
8 11 196 1
4 14 186 0
11 8 200 1
13 6 157 0
13 2 45 0
1 3 43 1
3 14 164 1
6 5 149 0
13 12 118 0
1 7 135 0
5 4 133 0
6 1 81 0
10 2 60 1
11 8 174 1
4 1 145 1
10 2 124 0
2 7 154 1
3 9 152 0
12 3 78 1
13 12 135 0
14 12 104 0
10 4 67 1
5 6 162 1
10 12 100 1
13 10 132 0
11 8 168 1
8 10 193 0
12 3 160 1
6 12 104 0
3 1 142 1
6 3 182 0
3 12 43 0
8 14 136 0
10 13 75 0
1 12 45 0
9 3 168 0
3 9 191 0
4 13 101 0
4 13 179 0
8 1 60 1
12 6 91 1
5 6 70 1
10 5 194 0
11 6 176 1
10 5 181 1
7 6 100 1
6 2 110 1
5 6 56 0
5 1 182 1
10 3 196 1
13 11 120 1
5 8 168 1
5 13 55 0
5 11 182 1
2 1 71 0
7 4 188 0
7 2 125 0
9 6 57 1
4 8 169 0
5 13 49 0
13 7 115 0
14 13 118 1
2 13 40 0
5 1 63 1
7 5 78 0
3 5 82 1
10 5 133 0
4 10 123 0
1 4 110 1
10 14 164 1
11 9 164 1
9 4 86 0
5 2 106 0
12 11 55 1
4 2 146 0
12 9 92 1
7 5 181 1
10 5 89 1
13 14 51 1
14 2 150 1
2 13 43 1
4 14 176 0
13 11 174 0
11 10 86 1
13 1 152 1
12 4 56 0
2 12 185 1
4 1 119 0
11 5 136 1
2 9 180 0
4 5 127 1
6 4 118 0
6 8 55 0
3 6 146 0
3 8 200 0
2 1 119 0
7 3 98 1
11 6 186 1
3 14 56 0
5 2 71 1
5 10 78 0
5 3 129 0
7 14 110 0
4 14 75 0
4 6 200 0
8 9 52 0
13 7 104 1
10 14 149 1
10 9 159 0
8 14 137 0
10 13 101 1
8 6 109 0
4 14 197 0
5 14 167 0
9 12 112 0
2 8 155 0
8 6 169 0
14 9 52 1
3 14 123 1
10 7 55 1
9 3 104 1
8 7 69 1
4 8 130 1
13 5 144 0
4 6 169 1
9 4 56 1
14 2 70 0
12 7 115 0
6 8 152 1
8 7 177 0
2 9 66 1
8 13 146 0
2 8 184 1
9 2 106 0
2 12 142 1
9 6 144 0
2 9 192 0
9 4 147 0
11 3 67 1
4 3 140 0
4 12 103 1
3 6 180 1
4 6 182 1
7 4 129 0
13 4 67 0
5 8 172 0
1 6 119 1
1 9 133 0
7 2 88 1
1 4 200 1
3 13 45 1
4 11 184 0
10 12 192 0
6 14 110 1
5 10 190 1
9 14 105 0
5 1 179 0
2 4 75 1
11 5 101 1
8 5 177 0
14 6 149 1
1 14 125 1
9 11 197 0
13 14 162 0
5 1 151 0
11 3 97 0
7 12 171 0
7 10 135 1
1 2 75 1
8 14 155 0
1 9 194 0
14 13 71 1
3 2 90 1
6 4 90 1
14 2 85 0
12 11 129 1
10 12 50 1
4 7 89 0
2 4 183 1
6 5 144 0
11 14 47 0
1 10 165 0
1 14 72 0
6 7 57 0
7 5 97 1
7 10 148 1
2 7 165 0
9 6 182 0
1 11 163 0
11 14 126 0
14 8 176 0
14 7 162 1
12 14 111 1
14 6 67 0
9 14 118 1
10 13 139 1
7 6 53 1
13 8 88 0
12 11 136 1
5 8 199 0
10 7 160 1
4 2 154 1
12 11 56 0
12 6 83 0
10 8 41 1
7 11 173 0
2 9 156 0
3 4 199 1
12 9 171 1
10 9 144 0
14 13 151 0
5 2 123 1
11 1 67 0
6 14 190 1
3 9 135 1
5 6 94 0
2 8 91 0
11 9 155 0
6 13 184 1
1 6 87 1
2 6 179 0
1 14 137 1
7 11 129 1
9 3 170 0
7 11 105 1
3 8 147 1
1 5 111 0
2 13 75 1
6 14 68 1
8 5 184 0
7 12 98 1
8 11 149 1
12 13 46 0
4 11 118 0
8 9 75 1
5 12 196 1
13 14 144 0
6 7 50 0
5 12 199 0
5 1 187 0
7 14 156 1
8 13 49 0
5 3 64 1
1 14 152 0
1 12 115 1
4 12 80 0
14 8 186 1
11 8 70 0
8 14 100 1
11 5 58 1
10 14 107 0
12 6 187 0
3 7 79 0
9 10 146 1
12 1 149 1
10 13 82 0
5 12 120 0
3 4 150 0
10 9 200 0
7 4 145 0
5 9 167 0
11 9 112 0
3 10 193 0
13 4 150 0
1 12 109 1
14 6 134 1
10 6 117 1
5 4 163 1
14 13 84 0
4 6 172 1
3 12 198 1
12 4 107 1
7 5 55 1
1 3 120 1
6 9 47 1
13 2 68 0
9 10 162 0
14 7 50 0
5 13 46 0
9 12 47 0
1 5 83 0
9 8 158 1
13 8 40 1
4 1 149 1
7 4 135 1
13 1 130 1
6 1 150 0
11 12 79 0
6 11 60 0
1 10 169 1
13 9 61 1
11 9 157 0
12 14 107 1
7 10 177 0
2 10 52 0
2 8 117 0
12 8 147 1
5 4 196 1
12 7 91 1
1 13 185 0
13 10 165 1
3 7 167 0
8 7 49 0
12 9 159 0
5 11 180 0
8 10 115 1
4 6 42 1
1 7 127 1
7 2 85 1
11 5 145 1
6 5 56 0
6 7 168 1
12 8 177 0
4 9 130 0
6 2 87 0
14 9 183 0
6 8 135 0
9 2 162 1
5 4 64 1
12 4 51 1
2 6 54 1
5 8 145 1
10 5 53 0
4 13 88 0
5 6 135 1
4 14 158 1
12 10 130 0
5 2 113 1
9 6 190 1
14 1 111 1
10 8 138 1
12 5 130 1
9 8 177 1
2 8 43 0
13 1 192 0
6 3 55 0
4 2 120 1
5 8 128 1
6 4 68 1
1 11 121 1
11 4 71 0
6 10 197 1
1 9 84 0
7 2 101 1
13 10 196 0
10 6 130 1
6 5 97 1
2 8 171 1
7 2 132 0
5 13 95 0
4 11 84 1
8 13 190 0
14 9 51 0
6 11 187 1
14 11 124 1
12 2 162 0
6 12 46 0
14 6 125 1
5 10 157 1
8 7 138 1
8 5 181 0
12 14 124 0
10 3 177 0
2 5 168 0
7 1 132 1
11 2 166 1
8 13 198 1
5 11 73 1
10 2 133 0
12 11 153 0
1 7 58 0
6 10 196 0
8 14 66 1
2 13 124 0
11 1 73 0
2 11 172 0
2 10 173 0
2 6 149 0
14 4 179 0
2 11 99 0
5 4 114 1
6 14 66 1
11 12 136 0
7 10 49 1
5 14 122 1
6 13 126 1
2 3 152 1
1 6 91 1
3 9 135 0
14 1 72 1
11 3 189 1
1 10 85 0
14 10 120 0
5 8 41 0
9 3 67 1
8 14 141 0
8 13 200 1
5 11 191 0
7 5 135 1
14 7 194 1
10 14 191 0
3 12 114 1
8 12 126 0
5 3 96 0
12 6 41 1
12 4 165 1
3 8 85 1
11 7 69 1
4 9 169 0
5 2 79 1
2 7 198 1
9 11 160 0
10 4 133 1
12 1 74 1
12 9 149 1
4 10 44 0
8 13 70 1
14 5 140 0
7 6 93 1
6 4 118 0
2 12 189 0
7 10 113 0
1 13 46 0
6 8 200 0
1 11 118 0
12 13 200 0
13 5 106 0
6 2 147 1
5 11 198 0
2 7 142 1
2 4 198 1
14 5 73 0
5 7 186 0
6 11 86 1
5 1 187 0
4 7 167 1
4 11 164 1
9 11 122 1
1 9 67 1
3 8 42 0
1 7 66 1
12 2 77 1
5 6 58 1
10 8 97 1
10 2 110 1
8 9 163 1
10 5 131 0
6 4 190 1
8 9 147 0
3 10 188 0
9 13 117 0
7 2 58 1
7 14 142 1
1 5 192 1
3 11 174 0
8 14 159 1
11 13 195 0
13 4 49 1
3 1 164 0
5 9 177 1
6 8 69 0
3 4 191 0
12 6 67 0
13 5 68 1
14 3 189 1
4 2 81 0
2 9 44 1
5 14 88 1
10 6 61 1
5 12 140 0
14 7 174 0
1 12 112 0
13 10 85 1
4 3 99 0
13 11 63 1
2 13 148 1
14 2 119 0
7 1 93 0
4 14 45 0
6 10 193 0
10 6 57 0
7 13 146 1
10 13 182 1
6 12 188 0
7 9 188 0
6 4 173 0
4 8 139 1
4 6 101 0
2 9 145 0
7 5 67 1
4 6 131 1
11 9 57 0
2 6 86 0
1 11 78 1
1 2 73 1
13 4 55 1
10 9 95 1
4 5 97 1
10 11 41 1
4 13 162 0
10 9 194 0
8 2 182 0
7 5 161 0
12 13 54 1
8 5 134 1
3 4 55 1
5 9 64 0
1 11 149 0
11 3 59 0
3 1 61 0
3 1 46 1
8 6 200 0
3 11 159 0
7 5 105 0
13 10 42 1
4 9 189 1
7 2 155 1
11 14 47 0
7 4 47 1
13 11 174 0
3 6 81 1
5 4 72 0
8 2 71 0
6 11 88 1
13 11 93 0
1 9 58 1
1 14 124 1
9 11 91 1
7 2 170 1
6 11 107 0
9 5 105 1
5 3 199 1
5 1 188 0
14 8 130 0
4 7 75 0
4 14 171 0
1 5 101 0
14 3 66 1
8 1 99 0
14 7 152 1
3 13 47 0
9 5 75 0
10 6 104 1
4 13 188 0
4 9 72 0
10 13 160 1
4 6 107 0
2 8 140 0
3 6 98 1
13 7 147 1
7 1 119 1
10 11 103 0
11 9 133 1
6 1 105 1
9 14 111 1
8 1 122 1
4 7 188 0
4 6 120 1
4 1 88 1
12 2 171 0
8 1 121 0
10 13 152 0
1 12 45 1
10 11 85 0
13 10 166 1
6 13 154 0
1 2 127 1
4 11 142 0
13 11 73 0
3 11 60 0
7 2 121 1
3 11 93 0
12 14 196 1
4 5 148 0
3 14 94 1
5 2 164 1
9 2 71 0
5 12 61 1
3 6 94 1
12 9 179 1
1 10 126 1
4 12 172 1
7 14 113 1
8 7 43 0
13 4 61 0
5 8 173 1
13 11 67 1
5 9 157 0
5 7 66 0
7 2 143 1
6 3 87 1
1 8 130 0
11 10 191 1
8 12 131 0
13 3 137 0
9 3 149 0
4 13 163 0
1 3 41 0
12 7 199 0
7 2 74 0
5 11 65 1
1 11 59 0
9 4 109 0
8 1 146 1
3 11 125 1
13 1 143 0
5 10 113 0
1 13 190 0
8 14 105 1
13 10 67 0
3 13 154 0
6 10 91 0
3 10 80 0
7 4 97 1
11 7 139 0
5 2 175 0
13 2 138 1
8 1 110 1
13 10 58 0
5 8 168 0
12 6 159 0
14 11 43 0
13 5 51 1
2 8 187 1
1 7 151 0
13 7 77 1
12 11 146 0
12 7 144 0
2 9 42 1
13 8 143 0
9 2 143 0
9 14 147 0
7 1 124 1
11 6 135 0
8 3 86 0
2 6 135 0
7 10 161 1
9 11 107 0
7 4 174 0
2 6 172 0
10 11 154 1
14 6 130 0
7 3 89 0
5 10 123 0
9 1 80 1
13 14 92 1
9 10 136 1
9 6 68 0
3 6 42 1
5 14 44 0
4 6 165 1
1 8 163 1
14 11 161 0
8 10 122 0
4 14 53 0
14 7 138 0
11 4 103 0
2 4 118 1
12 6 104 1
5 2 151 1
7 8 40 0
11 9 167 1
10 2 169 0
8 9 42 0
9 10 107 0
7 6 199 0
2 13 95 1
6 13 125 0
4 11 109 0
3 4 119 1
6 5 84 0
11 2 169 0
5 10 46 1
10 13 49 1
11 12 129 0
1 11 148 1
5 8 113 1
12 1 124 1
13 8 55 1
1 2 75 0
6 1 174 0
12 13 148 1
13 2 54 0
5 3 200 1
11 10 164 0
5 3 51 0
8 10 136 1
3 11 198 1
12 13 51 0
11 12 125 0
5 8 43 0
12 1 186 0
12 8 42 0
9 11 45 1
4 11 164 1
13 7 198 1
10 9 84 1
10 12 52 0
12 14 199 0
7 5 113 0
11 14 72 1
10 3 92 1
4 5 114 1
2 8 84 0
1 9 108 1
5 7 128 0
2 4 57 1
3 10 127 1
14 9 155 1
4 14 169 0
1 13 145 1
8 5 54 0
6 12 198 0
5 14 106 0
2 9 63 1
14 10 79 1
5 6 119 0
5 7 116 0
12 5 194 0
13 8 48 1
10 1 197 1
14 3 40 1
12 5 55 1
6 13 181 0
13 3 81 1
2 9 88 1
9 3 85 1
8 3 177 0
12 4 161 1
10 3 200 1
8 4 100 0
8 7 64 1
10 9 69 1
8 14 85 0
9 11 50 1
13 8 125 0
10 7 129 1
8 2 83 1
9 8 190 0
13 8 158 0
2 14 108 0
2 14 131 1
10 4 151 0
9 14 156 0
11 8 111 1
5 7 147 1
5 10 121 0
5 2 180 0
12 14 141 1
8 14 140 1
7 1 79 1
2 7 68 1
2 6 155 0
13 11 93 0
8 4 67 0
3 13 57 1
3 12 136 1
12 2 67 1
5 4 167 1
10 14 59 0
7 8 75 1
4 3 180 0
1 7 50 1
9 10 92 1
1 3 178 0
5 12 138 1
13 4 194 0
13 7 134 1
11 6 59 1
1 14 151 0
11 10 85 1
1 10 188 1
6 13 41 1
10 12 178 0
10 8 123 0
3 5 148 1
9 11 66 1
11 5 175 1
5 8 174 0
1 9 126 1
13 14 118 1
8 4 41 1
10 3 76 1
9 10 51 1
11 9 51 0
8 14 43 1
6 10 51 1
1 9 120 0
11 4 78 1
14 3 100 1
14 12 157 0
9 6 65 1
13 11 98 0
10 5 63 0
5 2 74 1
1 6 154 0
9 7 171 1
6 2 145 1
4 14 191 1
1 3 108 0
7 9 120 1
10 8 65 1
13 14 156 0
13 2 159 1
10 1 188 0
2 5 148 0
14 1 119 1
6 1 141 0
9 6 168 0
11 10 107 1
2 6 110 0
4 11 181 0
1 8 134 1
6 12 88 0
11 7 174 1
2 14 131 1
2 1 44 0
8 12 140 1
3 4 144 0
8 2 112 0
6 1 87 1
11 5 119 1
11 10 62 0
6 8 199 1
12 6 171 1
6 10 78 0
4 1 128 0
12 4 152 0
11 5 91 1
6 4 130 0
3 6 43 1
1 3 72 0
4 8 128 1
14 3 177 1
8 1 82 1
10 4 143 0
8 12 106 0
9 2 179 1
4 5 147 0
7 5 131 1
8 14 117 1
12 3 52 1
7 11 152 0
3 6 110 0
13 5 178 1
8 12 166 0
1 6 110 0
3 8 104 1
2 6 113 1
13 9 71 0
11 10 95 1
6 7 126 1
14 6 70 1
10 14 142 1
6 1 135 1
10 1 64 1
7 6 86 1
14 6 62 0
1 8 103 1
3 7 135 1
7 11 61 1
12 8 40 1
14 3 164 1
4 8 105 0
5 2 81 0
12 9 146 1
8 5 55 1
5 9 115 0
4 10 196 0
12 13 174 0
4 14 176 0
11 7 177 0
1 11 115 0
14 12 197 1
4 5 94 1
4 13 147 0
3 2 48 0
9 6 43 0
8 12 162 0
12 7 95 1
8 3 58 1
7 11 57 0
8 12 186 1
6 2 145 1
13 6 113 1
1 11 169 1
12 9 69 0
2 5 157 0
3 12 66 0
2 6 171 1
14 5 133 0
6 14 95 1
10 1 117 1
6 3 130 0
14 12 145 0
13 11 66 0
8 2 110 1
6 14 179 0
4 1 173 1
9 4 126 0
7 3 92 0
12 4 100 0
11 1 75 0
10 13 84 0
2 6 174 0
10 12 87 1
5 14 165 0
11 12 105 0
3 12 44 1
12 14 114 0
8 3 88 0
3 11 94 1
2 1 178 0
13 6 110 1
1 11 96 0
11 10 118 0
2 1 109 1
12 1 55 1
4 14 99 1
4 9 123 0
10 12 54 1
1 9 157 1
1 10 89 1
11 2 80 0
9 5 110 0
13 10 68 1
1 11 40 0
10 1 109 1
9 3 101 0
1 10 85 1
5 6 193 0
13 14 60 0
10 9 174 0
5 4 44 0
5 1 85 1
2 9 41 1
1 7 66 1
13 10 194 1
6 11 185 1
3 5 83 0
10 5 196 1
9 13 89 0
9 5 133 1
12 13 144 1
14 1 80 1
6 3 191 1
11 9 89 0
14 12 64 1
7 11 180 0
11 9 175 0
13 12 186 0
1 13 138 1
9 14 66 0
3 2 142 1
11 1 47 0
11 3 126 1
9 1 83 0
8 11 187 1
12 7 99 0
3 10 135 1
7 12 113 1
2 9 170 1
8 13 126 0
9 13 111 1
14 6 124 0
1 5 167 1